<?xml version="1.0" encoding="UTF-8" standalone="no"?>
<!-- Created with Inkscape (http://www.inkscape.org/) -->

<svg
   xmlns:dc="http://purl.org/dc/elements/1.1/"
   xmlns:cc="http://creativecommons.org/ns#"
   xmlns:rdf="http://www.w3.org/1999/02/22-rdf-syntax-ns#"
   xmlns:svg="http://www.w3.org/2000/svg"
   xmlns="http://www.w3.org/2000/svg"
   xmlns:sodipodi="http://sodipodi.sourceforge.net/DTD/sodipodi-0.dtd"
   xmlns:inkscape="http://www.inkscape.org/namespaces/inkscape"
   width="595.2995"
   height="680.22327"
   id="svg2"
   version="1.1"
   inkscape:version="0.48.5 r10040"
   sodipodi:docname="scheme_connecting_exp_theory.svg">
  <defs
     id="defs4" />
  <sodipodi:namedview
     id="base"
     pagecolor="#ffffff"
     bordercolor="#666666"
     borderopacity="1.0"
     inkscape:pageopacity="0.0"
     inkscape:pageshadow="2"
     inkscape:zoom="0.98994949"
     inkscape:cx="69.420543"
     inkscape:cy="354.6113"
     inkscape:document-units="px"
     inkscape:current-layer="g12135"
     showgrid="false"
     inkscape:window-width="2560"
     inkscape:window-height="1327"
     inkscape:window-x="0"
     inkscape:window-y="55"
     inkscape:window-maximized="1"
     showguides="true"
     inkscape:guide-bbox="true"
     fit-margin-top="0"
     fit-margin-left="0"
     fit-margin-right="0"
     fit-margin-bottom="0">
    <inkscape:grid
       type="xygrid"
       id="grid4032"
       empspacing="5"
       visible="true"
       enabled="true"
       snapvisiblegridlinesonly="true"
       originx="-183.06146px"
       originy="-38.670163px" />
  </sodipodi:namedview>
  <metadata
     id="metadata7">
    <rdf:RDF>
      <cc:Work
         rdf:about="">
        <dc:format>image/svg+xml</dc:format>
        <dc:type
           rdf:resource="http://purl.org/dc/dcmitype/StillImage" />
        <dc:title></dc:title>
      </cc:Work>
    </rdf:RDF>
  </metadata>
  <g
     inkscape:label="Layer 1"
     inkscape:groupmode="layer"
     id="layer1"
     transform="translate(-183.06146,-333.46878)">
    <g
       id="g12135">
      <rect
         transform="scale(-1,1)"
         ry="20.122257"
         y="333.46878"
         x="-547.48944"
         height="80.489029"
         width="130.40099"
         id="rect11067-1-2"
         style="fill:#00ccff;fill-opacity:1;stroke:none" />
      <rect
         ry="26.666374"
         y="485.56552"
         x="611.07495"
         height="106.6655"
         width="167.28601"
         id="rect11067-7-4"
         style="fill:#ffcc00;fill-opacity:1;stroke:none" />
      <path
         inkscape:transform-center-y="10.30646"
         transform="matrix(0.58894045,0,0,0.58894045,1289.5498,587.89614)"
         d="m -1010,124.09448 -30.3109,-52.499998 -30.3109,-52.499998 60.6218,-2e-6 60.62178,-1e-6 -30.31089,52.500002 z"
         inkscape:randomized="0"
         inkscape:rounded="0"
         inkscape:flatsided="false"
         sodipodi:arg2="2.6179939"
         sodipodi:arg1="1.5707963"
         sodipodi:r2="35"
         sodipodi:r1="70"
         sodipodi:cy="54.094482"
         sodipodi:cx="-1010"
         sodipodi:sides="3"
         id="path11069-5"
         style="fill:#ffcc00;fill-opacity:1;stroke:none"
         sodipodi:type="star" />
      <path
         sodipodi:nodetypes="ccccc"
         inkscape:connector-curvature="0"
         id="path11079-8-3"
         d="m 722.73449,420.61894 c -3.10162,13.74558 -8.99103,43.1926 -9.3249,59.68585 -7.30617,-0.002 -30.34414,-0.002 -37.29955,0 -0.64771,-16.49325 -6.53711,-45.94027 -9.3249,-59.68585 17.5113,1.96677 38.12421,1.96677 55.94935,0 z"
         style="fill:#ffcc00;fill-opacity:1;stroke:none" />
      <g
         style="fill:#ffcc00"
         transform="matrix(0.58894045,0,0,0.58894045,316.57965,388.13169)"
         id="g11124-6">
        <rect
           style="fill:#ffcc00;fill-opacity:1;stroke:none"
           id="rect11067-7-4-9"
           width="284.04572"
           height="181.11423"
           x="499.82501"
           y="468.97238"
           ry="45.278557" />
      </g>
      <path
         inkscape:transform-center-x="-10.117319"
         inkscape:transform-center-y="7.4310392"
         transform="matrix(-0.58894045,0,-0.44194034,0.4246293,66.105836,770.51516)"
         d="m -1010,124.09448 -30.3109,-52.499998 -30.3109,-52.499998 60.6218,-2e-6 60.62178,-1e-6 -30.31089,52.500002 z"
         inkscape:randomized="0"
         inkscape:rounded="0"
         inkscape:flatsided="false"
         sodipodi:arg2="2.6179939"
         sodipodi:arg1="1.5707963"
         sodipodi:r2="35"
         sodipodi:r1="70"
         sodipodi:cy="54.094482"
         sodipodi:cx="-1010"
         sodipodi:sides="3"
         id="path11069-9-4-8"
         style="fill:#ffcc00;fill-opacity:1;stroke:none"
         sodipodi:type="star" />
      <rect
         ry="14.458668"
         y="827.58679"
         x="421.5654"
         height="57.834671"
         width="130.40099"
         id="rect11067-77-0"
         style="fill:#55d400;fill-opacity:1;stroke:none" />
      <path
         inkscape:transform-center-y="0.65776594"
         inkscape:transform-center-x="-7.0437977"
         transform="matrix(0.42318337,0.0048794,-0.02320161,0.40860158,879.87427,380.4349)"
         d="m -750,54.094483 -3.48076,-57.9903821 -3.48077,-57.9903789 51.96153,25.980761 51.96152,25.9807592 -48.48076,32.0096218 z"
         inkscape:randomized="0"
         inkscape:rounded="0"
         inkscape:flatsided="false"
         sodipodi:arg2="3.0816415"
         sodipodi:arg1="2.0344439"
         sodipodi:r2="33.541019"
         sodipodi:r1="67.082039"
         sodipodi:cy="-5.9055176"
         sodipodi:cx="-720"
         sodipodi:sides="3"
         id="path11071"
         style="fill:#00ccff;fill-opacity:1;stroke:none"
         sodipodi:type="star" />
      <text
         sodipodi:linespacing="125%"
         id="text3881"
         y="368.21329"
         x="481.06531"
         style="font-size:23.55761719px;font-style:normal;font-variant:normal;font-weight:normal;font-stretch:normal;text-align:center;line-height:125%;letter-spacing:0px;word-spacing:0px;text-anchor:middle;fill:#000000;fill-opacity:1;stroke:none;font-family:Droid Serif;-inkscape-font-specification:Sans"
         xml:space="preserve"><tspan
           style="font-size:21.20185661px"
           y="368.21329"
           x="481.06531"
           id="tspan3883"
           sodipodi:role="line">Make</tspan><tspan
           style="font-size:21.20185661px"
           id="tspan3885"
           y="394.71561"
           x="481.06531"
           sodipodi:role="line">Model</tspan></text>
      <path
         sodipodi:nodetypes="ccccc"
         inkscape:connector-curvature="0"
         id="path11079"
         d="m 365.63297,349.26903 c 5.15323,3.33733 30.91938,8.34332 41.22584,8.34332 -1.03065,8.34332 -1.03065,25.02997 0,33.37329 -10.30646,0 -36.07261,5.00599 -41.22584,8.34333 2.0613,-16.68665 2.0613,-33.3733 0,-50.05994 z"
         style="fill:#00ccff;fill-opacity:1;stroke:none" />
      <text
         sodipodi:linespacing="125%"
         id="text3907"
         y="516.62628"
         x="695.07214"
         style="font-size:23.55761719px;font-style:normal;font-variant:normal;font-weight:normal;font-stretch:normal;text-align:center;line-height:125%;letter-spacing:0px;word-spacing:0px;text-anchor:middle;fill:#000000;fill-opacity:1;stroke:none;font-family:Droid Serif;-inkscape-font-specification:Sans"
         xml:space="preserve"><tspan
           y="516.62628"
           x="698.1319"
           id="tspan3909"
           sodipodi:role="line">Construct </tspan><tspan
           id="tspan3911"
           y="546.0733"
           x="695.07214"
           sodipodi:role="line">Approximate</tspan><tspan
           id="tspan3913"
           y="575.52032"
           x="695.07214"
           sodipodi:role="line">Theories</tspan></text>
      <text
         sodipodi:linespacing="125%"
         id="text3921"
         y="709.37805"
         x="694.31494"
         style="font-size:23.55761719px;font-style:normal;font-variant:normal;font-weight:normal;font-stretch:normal;text-align:center;line-height:125%;letter-spacing:0px;word-spacing:0px;text-anchor:middle;fill:#000000;fill-opacity:1;stroke:none;font-family:Droid Serif;-inkscape-font-specification:Sans"
         xml:space="preserve"><tspan
           style="font-size:21.20185661px;font-weight:bold;-inkscape-font-specification:Droid Serif Bold"
           y="709.37805"
           x="697.06873"
           id="tspan3923"
           sodipodi:role="line">Theoretical </tspan><tspan
           style="font-size:21.20185661px;font-weight:bold;-inkscape-font-specification:Droid Serif Bold"
           id="tspan3925"
           y="735.88037"
           x="694.31494"
           sodipodi:role="line">predictions</tspan></text>
      <rect
         transform="scale(-1,1)"
         ry="26.666374"
         y="485.6221"
         x="-351.73599"
         height="106.6655"
         width="167.28601"
         id="rect11067-7-4-8-0"
         style="fill:#55d400;fill-opacity:1;stroke:none" />
      <path
         inkscape:transform-center-y="10.306455"
         transform="matrix(-0.58894045,0,0,0.58894045,-326.73891,587.95272)"
         d="m -1010,124.09448 -30.3109,-52.499998 -30.3109,-52.499998 60.6218,-2e-6 60.62178,-1e-6 -30.31089,52.500002 z"
         inkscape:randomized="0"
         inkscape:rounded="0"
         inkscape:flatsided="false"
         sodipodi:arg2="2.6179939"
         sodipodi:arg1="1.5707963"
         sodipodi:r2="35"
         sodipodi:r1="70"
         sodipodi:cy="54.094482"
         sodipodi:cx="-1010"
         sodipodi:sides="3"
         id="path11069-5-9-5"
         style="fill:#55d400;fill-opacity:1;stroke:none"
         sodipodi:type="star" />
      <path
         sodipodi:nodetypes="ccccc"
         inkscape:connector-curvature="0"
         id="path11079-8-3-3-1"
         d="m 240.07644,420.67552 c 3.10162,13.74559 8.99102,43.19261 9.32489,59.68586 7.30617,-0.002 30.34414,-0.002 37.29955,0 0.64771,-16.49325 6.53711,-45.94027 9.3249,-59.68586 -17.5113,1.96678 -38.12421,1.96678 -55.94934,0 z"
         style="fill:#55d400;fill-opacity:1;stroke:none" />
      <g
         style="fill:#55d400"
         transform="matrix(-0.58894045,0,0,0.58894045,646.23127,388.18828)"
         id="g11124-6-6-1">
        <rect
           style="fill:#55d400;fill-opacity:1;stroke:none"
           id="rect11067-7-4-9-8-0"
           width="284.04572"
           height="181.11423"
           x="499.82501"
           y="468.97238"
           ry="45.278557" />
      </g>
      <path
         inkscape:transform-center-x="-10.117329"
         inkscape:transform-center-y="7.431042"
         transform="matrix(0.58894045,0,0.44194034,0.4246293,896.70509,770.57176)"
         d="m -1010,124.09448 -30.3109,-52.499998 -30.3109,-52.499998 60.6218,-2e-6 60.62178,-1e-6 -30.31089,52.500002 z"
         inkscape:randomized="0"
         inkscape:rounded="0"
         inkscape:flatsided="false"
         sodipodi:arg2="2.6179939"
         sodipodi:arg1="1.5707963"
         sodipodi:r2="35"
         sodipodi:r1="70"
         sodipodi:cy="54.094482"
         sodipodi:cx="-1010"
         sodipodi:sides="3"
         id="path11069-9-4-8-0-8"
         style="fill:#55d400;fill-opacity:1;stroke:none"
         sodipodi:type="star" />
      <rect
         transform="scale(-1,1)"
         ry="20.122257"
         y="333.7182"
         x="-353.85419"
         height="80.489029"
         width="170.79272"
         id="rect11067-1-2-5"
         style="fill:#55d400;fill-opacity:1;stroke:none" />
      <text
         sodipodi:linespacing="125%"
         id="text3869"
         y="366.00998"
         x="267.93079"
         style="font-size:23.55761719px;font-style:normal;font-variant:normal;font-weight:normal;font-stretch:normal;line-height:125%;letter-spacing:0px;word-spacing:0px;fill:#000000;fill-opacity:1;stroke:none;font-family:Droid Serif;-inkscape-font-specification:Sans"
         xml:space="preserve"><tspan
           style="font-size:21.20185661px;font-weight:bold;text-align:center;text-anchor:middle;-inkscape-font-specification:Droid Serif Bold"
           y="366.00998"
           x="270.68454"
           id="tspan3871"
           sodipodi:role="line">Real system </tspan><tspan
           style="font-size:21.20185661px;font-weight:bold;text-align:center;text-anchor:middle;-inkscape-font-specification:Droid Serif Bold"
           id="tspan3873"
           y="392.5123"
           x="267.93079"
           sodipodi:role="line" /></text>
      <path
         inkscape:transform-center-y="5.1504935"
         transform="matrix(0.58894045,0,0,0.29431356,1081.5435,883.28866)"
         d="m -1010,124.09448 -30.3109,-52.499998 -30.3109,-52.499998 60.6218,-2e-6 60.62178,-1e-6 -30.31089,52.500002 z"
         inkscape:randomized="0"
         inkscape:rounded="0"
         inkscape:flatsided="false"
         sodipodi:arg2="2.6179939"
         sodipodi:arg1="1.5707963"
         sodipodi:r2="35"
         sodipodi:r1="70"
         sodipodi:cy="54.094482"
         sodipodi:cx="-1010"
         sodipodi:sides="3"
         id="path11069-9-8-8"
         style="fill:#55d400;fill-opacity:1;stroke:none"
         sodipodi:type="star" />
      <text
         sodipodi:linespacing="125%"
         id="text3893"
         y="711.90204"
         x="267.70062"
         style="font-size:23.55761719px;font-style:normal;font-variant:normal;font-weight:normal;font-stretch:normal;text-align:center;line-height:125%;letter-spacing:0px;word-spacing:0px;text-anchor:middle;fill:#000000;fill-opacity:1;stroke:none;font-family:Droid Serif;-inkscape-font-specification:Sans"
         xml:space="preserve"><tspan
           style="font-size:21.20185661px;font-weight:bold;-inkscape-font-specification:Droid Serif Bold"
           y="711.90204"
           x="267.70062"
           id="tspan3895"
           sodipodi:role="line">experimental</tspan><tspan
           style="font-size:21.20185661px;font-weight:bold;-inkscape-font-specification:Droid Serif Bold"
           id="tspan3897"
           y="738.40436"
           x="267.70062"
           sodipodi:role="line">results</tspan></text>
      <text
         sodipodi:linespacing="125%"
         id="text3887"
         y="529.16223"
         x="267.86887"
         style="font-size:23.55761719px;font-style:normal;font-variant:normal;font-weight:normal;font-stretch:normal;text-align:center;line-height:125%;letter-spacing:0px;word-spacing:0px;text-anchor:middle;fill:#000000;fill-opacity:1;stroke:none;font-family:Droid Serif;-inkscape-font-specification:Sans"
         xml:space="preserve"><tspan
           y="529.16223"
           x="267.86887"
           id="tspan3889"
           sodipodi:role="line">Perform</tspan><tspan
           id="tspan3891"
           y="558.60925"
           x="267.86887"
           sodipodi:role="line">experiments</tspan></text>
      <rect
         transform="scale(-1,1)"
         ry="20.122257"
         y="334.05475"
         x="-776.54944"
         height="80.489029"
         width="162.37907"
         id="rect11067-1-2-5-6"
         style="fill:#ffcc00;fill-opacity:1;stroke:none" />
      <text
         sodipodi:linespacing="125%"
         id="text3875"
         y="368.21329"
         x="694.73566"
         style="font-size:23.55761719px;font-style:normal;font-variant:normal;font-weight:normal;font-stretch:normal;text-align:center;line-height:125%;letter-spacing:0px;word-spacing:0px;text-anchor:middle;fill:#000000;fill-opacity:1;stroke:none;font-family:Droid Serif;-inkscape-font-specification:Sans"
         xml:space="preserve"><tspan
           style="font-size:21.20185661px;font-weight:bold;-inkscape-font-specification:Droid Serif Bold"
           y="368.21329"
           x="697.48944"
           id="tspan3877"
           sodipodi:role="line">Physical </tspan><tspan
           style="font-size:21.20185661px;font-weight:bold;-inkscape-font-specification:Droid Serif Bold"
           id="tspan3879"
           y="394.71561"
           x="694.73566"
           sodipodi:role="line">model system</tspan></text>
      <text
         sodipodi:linespacing="125%"
         id="text3927-2"
         y="862.56744"
         x="429.71194"
         style="font-size:23.55761719px;font-style:normal;font-variant:normal;font-weight:normal;font-stretch:normal;line-height:125%;letter-spacing:0px;word-spacing:0px;fill:#000000;fill-opacity:1;stroke:none;font-family:Droid Serif;-inkscape-font-specification:Sans"
         xml:space="preserve"><tspan
           style="font-size:25px;font-weight:bold;-inkscape-font-specification:Droid Serif Bold"
           y="862.56744"
           x="429.71194"
           id="tspan3929-8"
           sodipodi:role="line">compare</tspan></text>
      <g
         style="fill:#55d400;fill-opacity:1"
         transform="matrix(-0.84499424,0,0,0.48514811,1027.9222,698.30373)"
         id="g11124-6-6-4">
        <rect
           style="fill:#55d400;fill-opacity:1;stroke:none"
           id="rect11067-7-4-9-8-7"
           width="284.04572"
           height="181.11423"
           x="499.82501"
           y="468.97238"
           ry="45.278557" />
      </g>
      <text
         sodipodi:linespacing="125%"
         id="text3935"
         y="964.22101"
         x="485.30112"
         style="font-size:23.55761719px;font-style:normal;font-variant:normal;font-weight:normal;font-stretch:normal;text-align:center;line-height:125%;letter-spacing:0px;word-spacing:0px;text-anchor:middle;fill:#000000;fill-opacity:1;stroke:none;font-family:Droid Serif;-inkscape-font-specification:Sans"
         xml:space="preserve"><tspan
           style="font-size:28.26914215px;font-weight:bold;-inkscape-font-specification:Droid Serif Bold"
           id="tspan3943"
           y="964.22101"
           x="485.30112"
           sodipodi:role="line">Test theories</tspan><tspan
           style="font-size:28.26914215px;font-weight:bold;-inkscape-font-specification:Droid Serif Bold"
           y="999.55743"
           x="485.30112"
           sodipodi:role="line"
           id="tspan3204">(and models..)</tspan></text>
    </g>
  </g>
</svg>
